Homework-10
…
Exercise 10.1: Reshaping Data

Take a look at the gapminder dataset in the gapminder package. The following chunk of code uses the pivot_wider() function to turn this dataset into wider form.

gap_wide <- gapminder::gapminder |> 
  select(continent, country, year, lifeExp, gdpPercap) |> 
  pivot_wider(
    names_from = year, 
    values_from = c(lifeExp, gdpPercap), 
    names_sep = ""
  )

gap_wide

# A tibble: 142 × 26
   continent country lifeExp1952 lifeExp1957 lifeExp1962 lifeExp1967 lifeExp1972
   <fct>     <fct>         <dbl>       <dbl>       <dbl>       <dbl>       <dbl>
 1 Asia      Afghan…        28.8        30.3        32.0        34.0        36.1
 2 Europe    Albania        55.2        59.3        64.8        66.2        67.7
 3 Africa    Algeria        43.1        45.7        48.3        51.4        54.5
 4 Africa    Angola         30.0        32.0        34          36.0        37.9
 5 Americas  Argent…        62.5        64.4        65.1        65.6        67.1
 6 Oceania   Austra…        69.1        70.3        70.9        71.1        71.9
 7 Europe    Austria        66.8        67.5        69.5        70.1        70.6
 8 Asia      Bahrain        50.9        53.8        56.9        59.9        63.3
 9 Asia      Bangla…        37.5        39.3        41.2        43.5        45.3
10 Europe    Belgium        68          69.2        70.2        70.9        71.4
# ℹ 132 more rows
# ℹ 19 more variables: lifeExp1977 <dbl>, lifeExp1982 <dbl>, lifeExp1987 <dbl>,
#   lifeExp1992 <dbl>, lifeExp1997 <dbl>, lifeExp2002 <dbl>, lifeExp2007 <dbl>,
#   gdpPercap1952 <dbl>, gdpPercap1957 <dbl>, gdpPercap1962 <dbl>,
#   gdpPercap1967 <dbl>, gdpPercap1972 <dbl>, gdpPercap1977 <dbl>,
#   gdpPercap1982 <dbl>, gdpPercap1987 <dbl>, gdpPercap1992 <dbl>,
#   gdpPercap1997 <dbl>, gdpPercap2002 <dbl>, gdpPercap2007 <dbl>
…
!!! It works!

Use the panelr package to turn the gap_long into gap_wide (i.e., Replicating what ACA did earlier with pivot_wider()).

gap_wide <- gap_long |> 
  widen_panel()

gap_wide

# A tibble: 142 × 26
   country     continent lifeExp_1952 gdpPercap_1952 lifeExp_1957 gdpPercap_1957
   <fct>       <fct>            <dbl>          <dbl>        <dbl>          <dbl>
 1 Afghanistan Asia              28.8           779.         30.3           821.
 2 Albania     Europe            55.2          1601.         59.3          1942.
 3 Algeria     Africa            43.1          2449.         45.7          3014.
 4 Angola      Africa            30.0          3521.         32.0          3828.
 5 Argentina   Americas          62.5          5911.         64.4          6857.
 6 Australia   Oceania           69.1         10040.         70.3         10950.
 7 Austria     Europe            66.8          6137.         67.5          8843.
 8 Bahrain     Asia              50.9          9867.         53.8         11636.
 9 Bangladesh  Asia              37.5           684.         39.3           662.
10 Belgium     Europe            68            8343.         69.2          9715.
# ℹ 132 more rows
# ℹ 20 more variables: lifeExp_1962 <dbl>, gdpPercap_1962 <dbl>,
#   lifeExp_1967 <dbl>, gdpPercap_1967 <dbl>, lifeExp_1972 <dbl>,
#   gdpPercap_1972 <dbl>, lifeExp_1977 <dbl>, gdpPercap_1977 <dbl>,
#   lifeExp_1982 <dbl>, gdpPercap_1982 <dbl>, lifeExp_1987 <dbl>,
#   gdpPercap_1987 <dbl>, lifeExp_1992 <dbl>, gdpPercap_1992 <dbl>,
#   lifeExp_1997 <dbl>, gdpPercap_1997 <dbl>, lifeExp_2002 <dbl>, …
…
